{
  "project_info": {
    "project_number": "128758591258",
    "firebase_url": "https://udda-248f1.firebaseio.com",
    "project_id": "udda-248f1",
    "storage_bucket": "udda-248f1.appspot.com"
  },
  "client": [
    {
      "client_info": {
        "mobilesdk_app_id": "1:128758591258:android:8b45ee0b219616ac",
        "android_client_info": {
          "package_name": "com.uddaapp"
        }
      },
      "oauth_client": [
        {
          "client_id": "128758591258-ntimdhksk9l9o558m9dadanhh6k9a12d.apps.googleusercontent.com",
          "client_type": 3
        }
      ],
      "api_key": [
        {
          "current_key": "AIzaSyClJ7ljhwQ9os9zSCnLSUvuPsuR8sB0YXQ"
        }
      ],
      "services": {
        "analytics_service": {
          "status": 1
        },
        "appinvite_service": {
          "status": 1,
          "other_platform_oauth_client": []
        },
        "ads_service": {
          "status": 2
        }
      }
    }
  ],
  "configuration_version": "1"
}